\relax 
\providecommand\hyper@newdestlabel[2]{}
\providecommand\HyperFirstAtBeginDocument{\AtBeginDocument}
\HyperFirstAtBeginDocument{\ifx\hyper@anchor\@undefined
\global\let\oldcontentsline\contentsline
\gdef\contentsline#1#2#3#4{\oldcontentsline{#1}{#2}{#3}}
\global\let\oldnewlabel\newlabel
\gdef\newlabel#1#2{\newlabelxx{#1}#2}
\gdef\newlabelxx#1#2#3#4#5#6{\oldnewlabel{#1}{{#2}{#3}}}
\AtEndDocument{\ifx\hyper@anchor\@undefined
\let\contentsline\oldcontentsline
\let\newlabel\oldnewlabel
\fi}
\fi}
\global\let\hyper@last\relax 
\gdef\HyperFirstAtBeginDocument#1{#1}
\providecommand\HyField@AuxAddToFields[1]{}
\providecommand\HyField@AuxAddToCoFields[2]{}
\babel@aux{english}{}
\@writefile{toc}{\contentsline {section}{\numberline {1}Problem Statement}{1}{section.1}}
\newlabel{stat}{{1}{1}{Problem Statement}{section.1}{}}
\@writefile{toc}{\contentsline {section}{\numberline {2}Dataset Description and Preprocessing}{1}{section.2}}
\newlabel{preprocess}{{2}{1}{Dataset Description and Preprocessing}{section.2}{}}
\@writefile{toc}{\contentsline {section}{\numberline {3}Creation of a Convolutional Neural Network from Scratch}{1}{section.3}}
\newlabel{creation}{{3}{1}{Creation of a Convolutional Neural Network from Scratch}{section.3}{}}
\@writefile{lof}{\contentsline {figure}{\numberline {1}{\ignorespaces Dataset architecture.}}{2}{figure.1}}
\newlabel{fig:dataset}{{1}{2}{Dataset architecture}{figure.1}{}}
\@writefile{toc}{\contentsline {subsection}{\numberline {3.1}AlexNet Implementation from Scratch}{2}{subsection.3.1}}
\@writefile{toc}{\contentsline {subsection}{\numberline {3.2}Training - Google Colab}{2}{subsection.3.2}}
\@writefile{toc}{\contentsline {subsection}{\numberline {3.3}Results of Training and Further considerations}{2}{subsection.3.3}}
\@writefile{lof}{\contentsline {figure}{\numberline {2}{\ignorespaces Convolutional Neural Network AlexNet-like architecture.}}{3}{figure.2}}
\newlabel{fig:alexnetConf}{{2}{3}{Convolutional Neural Network AlexNet-like architecture}{figure.2}{}}
\@writefile{lof}{\contentsline {figure}{\numberline {3}{\ignorespaces Training Phase.}}{3}{figure.3}}
\newlabel{fig:training}{{3}{3}{Training Phase}{figure.3}{}}
\@writefile{lof}{\contentsline {figure}{\numberline {4}{\ignorespaces Confusion Matrix for our from scratch model.}}{4}{figure.4}}
\newlabel{fig:confusiomatrix}{{4}{4}{Confusion Matrix for our from scratch model}{figure.4}{}}
\@writefile{toc}{\contentsline {section}{\numberline {4}Final Implementation}{4}{section.4}}
\newlabel{finalscript}{{4}{4}{Final Implementation}{section.4}{}}
\@writefile{lof}{\contentsline {figure}{\numberline {5}{\ignorespaces List of all used modules for the program.}}{4}{figure.5}}
\newlabel{fig:lib}{{5}{4}{List of all used modules for the program}{figure.5}{}}
\@writefile{toc}{\contentsline {subsection}{\numberline {4.1}Face Detection - Haarcascade}{4}{subsection.4.1}}
\@writefile{lof}{\contentsline {figure}{\numberline {6}{\ignorespaces Output of the first MaxPooling2D layer.}}{5}{figure.6}}
\newlabel{fig:max_pooling2d_25}{{6}{5}{Output of the first MaxPooling2D layer}{figure.6}{}}
\@writefile{toc}{\contentsline {subsection}{\numberline {4.2}Intermediate Steps}{5}{subsection.4.2}}
\@writefile{toc}{\contentsline {subsection}{\numberline {4.3}Final Results}{5}{subsection.4.3}}
\@writefile{lof}{\contentsline {figure}{\numberline {7}{\ignorespaces Output from the first convolutional layer.}}{6}{figure.7}}
\newlabel{fig:firstconv}{{7}{6}{Output from the first convolutional layer}{figure.7}{}}
\@writefile{lof}{\contentsline {figure}{\numberline {8}{\ignorespaces Output of the first ReLU layer.}}{6}{figure.8}}
\newlabel{fig:activation_73}{{8}{6}{Output of the first ReLU layer}{figure.8}{}}
\@writefile{lof}{\contentsline {figure}{\numberline {9}{\ignorespaces Successful prediction of Robert Downey Jr. with $99\%$ accuracy.}}{6}{figure.9}}
\newlabel{fig:imageRecognition}{{9}{6}{Successful prediction of Robert Downey Jr. with $99\%$ accuracy}{figure.9}{}}
\bibcite{c1}{1}
\@writefile{lof}{\contentsline {figure}{\numberline {10}{\ignorespaces Image of Robert Downey Jr. where model predicts correctly.}}{7}{figure.10}}
\newlabel{fig:test1}{{10}{7}{Image of Robert Downey Jr. where model predicts correctly}{figure.10}{}}
\@writefile{lof}{\contentsline {figure}{\numberline {11}{\ignorespaces Erroneous prediction of Jennifer Love Hewitt with $99\%$ accuracy.}}{7}{figure.11}}
\newlabel{fig:imageRecognitionError}{{11}{7}{Erroneous prediction of Jennifer Love Hewitt with $99\%$ accuracy}{figure.11}{}}
\@writefile{lof}{\contentsline {figure}{\numberline {12}{\ignorespaces Image of Jennifer Love Hewitt where model predicts correctly. This can happen when the face is not totally visible or with some strange facial expressions.}}{7}{figure.12}}
\newlabel{fig:errorExample}{{12}{7}{Image of Jennifer Love Hewitt where model predicts correctly. This can happen when the face is not totally visible or with some strange facial expressions}{figure.12}{}}
\@writefile{lof}{\contentsline {figure}{\numberline {13}{\ignorespaces Successful prediction of Bruce Willis with $99\%$ accuracy in a video frame.}}{8}{figure.13}}
\newlabel{fig:brucewillis}{{13}{8}{Successful prediction of Bruce Willis with $99\%$ accuracy in a video frame}{figure.13}{}}
\@writefile{lof}{\contentsline {figure}{\numberline {14}{\ignorespaces Erroneous prediction of Bruce Willis.}}{8}{figure.14}}
\newlabel{fig:brucewillisError}{{14}{8}{Erroneous prediction of Bruce Willis}{figure.14}{}}
\bibcite{c2}{2}
\bibcite{c3}{3}
\bibcite{c4}{4}
