\BOOKMARK [1][-]{section.1}{Problem Statement}{}% 1
\BOOKMARK [1][-]{section.2}{Dataset Description and Preprocessing}{}% 2
\BOOKMARK [1][-]{section.3}{Creation of a Convolutional Neural Network from Scratch}{}% 3
\BOOKMARK [2][-]{subsection.3.1}{AlexNet Implementation from Scratch}{section.3}% 4
\BOOKMARK [2][-]{subsection.3.2}{Training - Google Colab}{section.3}% 5
\BOOKMARK [2][-]{subsection.3.3}{Results of Training and Further considerations}{section.3}% 6
\BOOKMARK [1][-]{section.4}{Final Implementation}{}% 7
\BOOKMARK [2][-]{subsection.4.1}{Face Detection - Haarcascade}{section.4}% 8
\BOOKMARK [2][-]{subsection.4.2}{Intermediate Steps}{section.4}% 9
\BOOKMARK [2][-]{subsection.4.3}{Final Results}{section.4}% 10
